inbound,tcp,80,192.168.1.2
outbound,tcp,10000-20000,192.168.10.11
inbound,udp,53,192.168.1.1-192.168.2.5
outbound,udp,1000-2000,52.12.48.92
inbound,tcp,90-100,192.168.1.2
inbound,tcp,300-500,192.168.1.2
inbound,tcp,95-305,192.168.1.2
inbound,tcp,80,192.168.3.5-192.168.10.10
inbound,tcp,80,192.168.10.01-192.172.10.1
inbound,tcp,80,192.168.3.1-192.168.3.7
inbound,tcp,80-85,192.168.2.0-192.168.2.200
